%YAML 1.1
%TAG !u! tag:unity3d.com,2011:
--- !u!1045 &1
EditorBuildSettings:
  m_ObjectHideFlags: 0
  serializedVersion: 2
  m_Scenes:
  - enabled: 1
    path: Assets/Scenes/Main menu.unity
    guid: fe0c59fab5edb8749b42f650e45d6ec7
  - enabled: 1
    path: Assets/Scenes/Greedy/Level 1 with generate maze.unity
    guid: 4238c76f3f65ab14c84994e56988818c
  m_configObjects: {}
